21.02.2020	1	1
22.02.2020	1	0
23.02.2020	1	0
24.02.2020	1	0
25.02.2020	1	0
26.02.2020	4	3
27.02.2020	6	2
28.02.2020	15	9
29.02.2020	21	6
01.03.2020	31	10
02.03.2020	43	12
03.03.2020	74	31
04.03.2020	107	33
05.03.2020	140	33
06.03.2020	164	24
07.03.2020	183	19
08.03.2020	248	65
09.03.2020	495	247
10.03.2020	736	241
11.03.2020	911	175
12.03.2020	1117	206
13.03.2020	1264	147
14.03.2020	1364	100
15.03.2020	1463	99
16.03.2020	1643	180
17.03.2020	1819	176
18.03.2020	2032	213
19.03.2020	2271	239
20.03.2020	2579	308
21.03.2020	2753	174
22.03.2020	2901	148
23.03.2020	3197	296
24.03.2020	3510	313
25.03.2020	3802	292
26.03.2020	4100	298
27.03.2020	4362	262
28.03.2020	4528	166
29.03.2020	4634	106
30.03.2020	4898	264
31.03.2020	5106	208
01.04.2020	5304	198
02.04.2020	5502	198
03.04.2020	5666	164
04.04.2020	5754	88
05.04.2020	5826	72
06.04.2020	5985	159
07.04.2020	6125	140
08.04.2020	6231	106
09.04.2020	6334	103
10.04.2020	6402	68
11.04.2020	6512	110
12.04.2020	6589	77
13.04.2020	6666	77
14.04.2020	6788	122
15.04.2020	6891	103
16.04.2020	6971	80
17.04.2020	7079	108
18.04.2020	7128	49
19.04.2020	7164	36
20.04.2020	7248	84
21.04.2020	7326	78
22.04.2020	7403	77
23.04.2020	7472	69
24.04.2020	7525	53
25.04.2020	7550	25
26.04.2020	7587	37
27.04.2020	7658	71
28.04.2020	7708	50
29.04.2020	7747	39
30.04.2020	7786	39
01.05.2020	7829	43
02.05.2020	7852	23
03.05.2020	7896	44
04.05.2020	7941	45
05.05.2020	7985	44
06.05.2020	8024	39
07.05.2020	8053	29
08.05.2020	8095	42
09.05.2020	8106	11
10.05.2020	8118	12
11.05.2020	8143	25
12.05.2020	8162	19
13.05.2020	8181	19
14.05.2020	8205	24
15.05.2020	8228	23
16.05.2020	8241	13
17.05.2020	8245	4
18.05.2020	8262	17
19.05.2020	8282	20
20.05.2020	8301	19
21.05.2020	8315	14
22.05.2020	8341	26
23.05.2020	8347	6
24.05.2020	8353	6
25.05.2020	8371	18
26.05.2020	8383	12
27.05.2020	8401	18
28.05.2020	8417	16
29.05.2020	8433	16
30.05.2020	8433	0
31.05.2020	8439	6
01.06.2020	8446	7
02.06.2020	8477	31
03.06.2020	8489	12
04.06.2020	8506	17
05.06.2020	8536	30
06.06.2020	8544	8
07.06.2020	8553	9
08.06.2020	8572	19
09.06.2020	8585	13
10.06.2020	8599	14
11.06.2020	8610	11
12.06.2020	8623	13
13.06.2020	8630	7
14.06.2020	8636	6
15.06.2020	8654	18
16.06.2020	8690	36
17.06.2020	8705	15
18.06.2020	8718	13
19.06.2020	8736	18
20.06.2020	8742	6
21.06.2020	8746	4
22.06.2020	8774	28
23.06.2020	8787	13
24.06.2020	8808	21
25.06.2020	8825	17
26.06.2020	8847	22
27.06.2020	8857	10
28.06.2020	8858	1
29.06.2020	8884	26
30.06.2020	8895	11
01.07.2020	8903	8
02.07.2020	8912	9
03.07.2020	8922	10
04.07.2020	8924	2
05.07.2020	8925	1
06.07.2020	8939	14
07.07.2020	8949	10
08.07.2020	8960	11
09.07.2020	8968	8
10.07.2020	8981	13
11.07.2020	8985	4
12.07.2020	8990	5
13.07.2020	9009	19
14.07.2020	9017	8
15.07.2020	9023	6
16.07.2020	9027	4
17.07.2020	9039	12
18.07.2020	9040	1
19.07.2020	9043	3
20.07.2020	9064	21
21.07.2020	9070	6
22.07.2020	9092	22
23.07.2020	9098	6
24.07.2020	9122	24
25.07.2020	9128	6
26.07.2020	9137	9
27.07.2020	9161	24
28.07.2020	9177	16
29.07.2020	9214	37
30.07.2020	9237	23
31.07.2020	9309	72
01.08.2020	9323	14
02.08.2020	9336	13
03.08.2020	9374	38
04.08.2020	9414	40
05.08.2020	9480	66
06.08.2020	9559	79
07.08.2020	9639	80
08.08.2020	9674	35
09.08.2020	9708	34
10.08.2020	9771	63
11.08.2020	9814	43
12.08.2020	9877	63
13.08.2020	9931	54
14.08.2020	10007	76
15.08.2020	10051	44
16.08.2020	10078	27
17.08.2020	10152	74
18.08.2020	10210	58
19.08.2020	10270	60
20.08.2020	10321	51
21.08.2020	10374	53
22.08.2020	10419	45
23.08.2020	10438	19
24.08.2020	10505	67
25.08.2020	10547	42
26.08.2020	10587	40
27.08.2020	10639	52
28.08.2020	10723	84
29.08.2020	10765	42
30.08.2020	10815	50
31.08.2020	10963	148
01.09.2020	11078	115
02.09.2020	11179	101
03.09.2020	11304	125
04.09.2020	11423	119
05.09.2020	11496	73
06.09.2020	11556	60
07.09.2020	11688	132
08.09.2020	11801	113
09.09.2020	11925	124
10.09.2020	12057	132
11.09.2020	12176	119
12.09.2020	12243	67
13.09.2020	12321	78
14.09.2020	12425	104
15.09.2020	12558	133
16.09.2020	12695	137
17.09.2020	12812	117
18.09.2020	12906	94
19.09.2020	12964	58
20.09.2020	13041	77
21.09.2020	13204	163
22.09.2020	13305	101
23.09.2020	13448	143
24.09.2020	13581	133
25.09.2020	13711	130
26.09.2020	13774	63
27.09.2020	13828	54
28.09.2020	13952	124
29.09.2020	14062	110
30.09.2020	14182	120
01.10.2020	14313	131
02.10.2020	14447	134
03.10.2020	14557	110
04.10.2020	14646	89
05.10.2020	14855	209
06.10.2020	15053	198
07.10.2020	15252	199
08.10.2020	15420	168
09.10.2020	15561	141
10.10.2020	15626	65
11.10.2020	15704	78
12.10.2020	15871	167
13.10.2020	16026	155
14.10.2020	16188	162
15.10.2020	16329	141
16.10.2020	16466	137
17.10.2020	16554	88
18.10.2020	16647	93
19.10.2020	16866	219
20.10.2020	17049	183
21.10.2020	17270	221
22.10.2020	17555	285
23.10.2020	17923	368
24.10.2020	18154	231
25.10.2020	18356	202
26.10.2020	18843	487
27.10.2020	19234	391
28.10.2020	19749	515
29.10.2020	20180	431
30.10.2020	20797	617
31.10.2020	21182	385
01.11.2020	21505	323
02.11.2020	22152	647
03.11.2020	22835	683
04.11.2020	23525	690
05.11.2020	24127	602
06.11.2020	24777	650
07.11.2020	25165	388
08.11.2020	25550	385
09.11.2020	26257	707
10.11.2020	26860	603
11.11.2020	27522	662
12.11.2020	28159	637
13.11.2020	28856	697
14.11.2020	29235	379
15.11.2020	29640	405
16.11.2020	30362	722
17.11.2020	30997	635
18.11.2020	31649	652
19.11.2020	32213	564
20.11.2020	32732	519
21.11.2020	33020	288
22.11.2020	33299	279
23.11.2020	33909	610
24.11.2020	34324	415
25.11.2020	34837	513
26.11.2020	35314	477
27.11.2020	35761	447
28.11.2020	35997	236
29.11.2020	36225	228
30.11.2020	36673	448
01.12.2020	37035	362
02.12.2020	37455	420
03.12.2020	37855	400
04.12.2020	38237	382
05.12.2020	38489	252
06.12.2020	38751	262
07.12.2020	39251	500
08.12.2020	39643	392
09.12.2020	40096	453
10.12.2020	40531	435
11.12.2020	40934	403
12.12.2020	41190	256
13.12.2020	41475	285
14.12.2020	42019	544
15.12.2020	42459	440
16.12.2020	42909	450
17.12.2020	43340	431
18.12.2020	43815	475
19.12.2020	44124	309
20.12.2020	44423	299
21.12.2020	45044	621
22.12.2020	45604	560
23.12.2020	46191	587
24.12.2020	46483	292
25.12.2020	46776	293
26.12.2020	47242	466
27.12.2020	47667	425
28.12.2020	48445	778
29.12.2020	49144	699
30.12.2020	49783	639
31.12.2020	50217	434
01.01.2021	50563	346
02.01.2021	51089	526
03.01.2021	51536	447
04.01.2021	52474	938
05.01.2021	53269	795
06.01.2021	53979	710
07.01.2021	54718	739
08.01.2021	55369	651
09.01.2021	55783	414
10.01.2021	56218	435
11.01.2021	56857	639
12.01.2021	57420	563
13.01.2021	57882	462
14.01.2021	58336	454
15.01.2021	58734	398
16.01.2021	59001	267
17.01.2021	59227	226
18.01.2021	59673	446
19.01.2021	60015	342
20.01.2021	60370	355
21.01.2021	60717	347
22.01.2021	61048	331
23.01.2021	61260	212
24.01.2021	61449	189
25.01.2021	61836	387
26.01.2021	62112	276
27.01.2021	62456	344
28.01.2021	62741	285
29.01.2021	63036	295
30.01.2021	63211	175
31.01.2021	63394	183
01.02.2021	63713	319
02.02.2021	64007	294
03.02.2021	64332	325
04.02.2021	64585	253
05.02.2021	64873	288
06.02.2021	65071	198
07.02.2021	65238	167
08.02.2021	65539	301
09.02.2021	65809	270
10.02.2021	66119	310
11.02.2021	66381	262
12.02.2021	66628	247
13.02.2021	66813	185
14.02.2021	66973	160
15.02.2021	67305	332
16.02.2021	67610	305
17.02.2021	67930	320
18.02.2021	68232	302
19.02.2021	68570	338
20.02.2021	68786	216
21.02.2021	69007	221
22.02.2021	69418	411
23.02.2021	69863	445
24.02.2021	70324	461
25.02.2021	70851	527
26.02.2021	71344	493
27.02.2021	71726	382
28.02.2021	72118	392
01.03.2021	72670	552
02.03.2021	73309	639
03.03.2021	73967	658
04.03.2021	74568	601
05.03.2021	75271	703
06.03.2021	75736	465
07.03.2021	76308	572
08.03.2021	77154	846
09.03.2021	77952	798
10.03.2021	78808	856
11.03.2021	79588	780
12.03.2021	80538	950
13.03.2021	81275	737
14.03.2021	81973	698
15.03.2021	83080	1107
16.03.2021	84087	1007
17.03.2021	85145	1058
18.03.2021	86189	1044
19.03.2021	87190	1001
20.03.2021	87899	709
21.03.2021	88548	649
22.03.2021	89655	1107
23.03.2021	90622	967
24.03.2021	91623	1001
25.03.2021	92494	871
26.03.2021	93389	895
27.03.2021	93991	602
28.03.2021	94468	477
29.03.2021	95333	865
30.03.2021	96182	849
31.03.2021	96988	806
01.04.2021	97612	624
02.04.2021	98312	700
03.04.2021	98924	612
04.04.2021	99577	653
05.04.2021	100292	715
06.04.2021	101180	888
07.04.2021	102028	848
08.04.2021	102798	770
09.04.2021	103510	712
10.04.2021	104006	496
11.04.2021	104402	396
12.04.2021	105140	738
13.04.2021	105735	595
14.04.2021	106336	601
15.04.2021	106885	549
16.04.2021	107464	579
17.04.2021	107795	331
18.04.2021	108141	346
19.04.2021	108716	575
20.04.2021	109248	532
21.04.2021	109786	538
22.04.2021	110249	463
23.04.2021	110759	510
24.04.2021	111046	287
25.04.2021	111363	317
26.04.2021	111865	502
27.04.2021	112346	481
28.04.2021	112765	419
29.04.2021	113179	414
30.04.2021	113620	441
01.05.2021	113871	251
02.05.2021	114167	296
03.05.2021	114678	511
04.05.2021	115141	463
05.05.2021	115636	495
06.05.2021	116145	509
07.05.2021	116583	438
08.05.2021	116935	352
09.05.2021	117287	352
10.05.2021	117811	524
11.05.2021	118238	427
12.05.2021	118618	380
13.05.2021	118916	298
14.05.2021	119331	415
15.05.2021	119571	240
16.05.2021	119851	280
17.05.2021	120034	183
18.05.2021	120576	542
19.05.2021	121117	541
20.05.2021	121720	603
21.05.2021	122388	668
22.05.2021	122740	352
23.05.2021	123078	338
24.05.2021	123461	383
25.05.2021	123889	428
26.05.2021	124252	363
27.05.2021	124636	384
28.05.2021	124983	347
29.05.2021	125182	199
30.05.2021	125367	185
31.05.2021	125711	344
01.06.2021	126098	387
02.06.2021	126391	293
03.06.2021	126673	282
04.06.2021	126935	262
05.06.2021	127080	145
06.06.2021	127231	151
07.06.2021	127434	203
08.06.2021	127647	213
09.06.2021	127854	207
10.06.2021	128056	202
11.06.2021	128211	155
12.06.2021	128340	129
13.06.2021	128451	111
14.06.2021	128659	208
15.06.2021	128854	195
16.06.2021	129069	215
17.06.2021	129266	197
18.06.2021	129437	171
19.06.2021	129590	153
20.06.2021	129705	115
21.06.2021	129910	205
22.06.2021	130176	266
23.06.2021	130415	239
24.06.2021	130589	174
25.06.2021	130764	175
26.06.2021	130870	106
27.06.2021	130976	106
28.06.2021	131202	226
29.06.2021	131415	213
30.06.2021	131676	261
01.07.2021	131873	197
02.07.2021	132059	186
03.07.2021	132158	99
04.07.2021	132281	123
05.07.2021	132488	207
06.07.2021	132688	200
07.07.2021	132892	204
08.07.2021	133075	183
09.07.2021	133250	175
10.07.2021	133358	108
11.07.2021	133459	101
12.07.2021	133646	187
13.07.2021	133792	146
14.07.2021	133975	183
15.07.2021	134162	187
16.07.2021	134388	226
17.07.2021	134499	111
18.07.2021	134643	144
19.07.2021	134872	229
20.07.2021	135045	173
21.07.2021	135306	261
22.07.2021	135521	215
23.07.2021	135772	251
24.07.2021	135947	175
25.07.2021	136146	199
26.07.2021	136461	315
27.07.2021	136810	349
28.07.2021	137232	422
29.07.2021	137578	346
30.07.2021	137932	354
31.07.2021	138182	250
01.08.2021	138427	245
02.08.2021	138882	455
03.08.2021	139328	446
04.08.2021	139830	502
05.08.2021	140293	463
06.08.2021	140771	478
07.08.2021	141093	322
08.08.2021	141424	331
09.08.2021	142093	669
10.08.2021	142669	576
11.08.2021	143279	610
12.08.2021	143818	539
13.08.2021	144364	546
14.08.2021	144799	435
15.08.2021	145175	376
16.08.2021	145800	625
17.08.2021	146437	637
18.08.2021	147126	689
19.08.2021	147796	670
20.08.2021	148537	741
21.08.2021	149129	592
22.08.2021	149683	554
23.08.2021	150862	1179
24.08.2021	152198	1336
25.08.2021	153612	1414
26.08.2021	155006	1394
27.08.2021	156441	1435
28.08.2021	157441	1000
29.08.2021	158397	956
30.08.2021	160253	1856
31.08.2021	161877	1624
01.09.2021	163490	1613
02.09.2021	165013	1523
03.09.2021	166558	1545
04.09.2021	167550	992
05.09.2021	168504	954
06.09.2021	170288	1784
07.09.2021	171726	1438
08.09.2021	173108	1382
09.09.2021	174434	1326
10.09.2021	175617	1183
11.09.2021	176282	665
12.09.2021	177060	778
13.09.2021	178373	1313
14.09.2021	179385	1012
15.09.2021	180306	921
16.09.2021	181116	810
17.09.2021	181800	684
18.09.2021	182310	510
19.09.2021	182791	481
20.09.2021	183779	988
21.09.2021	184481	702
22.09.2021	185206	725
23.09.2021	185966	760
24.09.2021	186616	650
25.09.2021	187020	404
26.09.2021	187406	386
27.09.2021	188156	750
28.09.2021	188765	609
29.09.2021	189348	583
30.09.2021	189846	498
01.10.2021	190334	488
02.10.2021	190634	300
03.10.2021	190890	256
04.10.2021	191547	657
05.10.2021	192033	486
06.10.2021	192525	492
07.10.2021	192974	449
08.10.2021	193420	446
09.10.2021	193658	238
10.10.2021	193901	243
11.10.2021	194517	616
12.10.2021	194976	459
13.10.2021	195362	386
14.10.2021	195737	375
15.10.2021	196185	448
16.10.2021	196475	290
17.10.2021	196734	259
18.10.2021	197480	746
19.10.2021	198060	580
20.10.2021	198775	715
21.10.2021	199420	645
22.10.2021	200172	752
23.10.2021	200635	463
24.10.2021	201137	502
25.10.2021	202361	1224
26.10.2021	203416	1055
27.10.2021	204530	1114
28.10.2021	205673	1143
29.10.2021	206851	1178
30.10.2021	207456	605
31.10.2021	208143	687
01.11.2021	210118	1975
02.11.2021	211533	1415
03.11.2021	213185	1652
04.11.2021	214683	1498
05.11.2021	216140	1457
06.11.2021	217025	885
07.11.2021	217983	958
08.11.2021	220373	2390
09.11.2021	222126	1753
10.11.2021	224092	1966
11.11.2021	225865	1773
12.11.2021	227657	1792
13.11.2021	228745	1088
14.11.2021	229806	1061
15.11.2021	232667	2861
16.11.2021	234807	2140
17.11.2021	237241	2434
18.11.2021	239576	2335
19.11.2021	241798	2222
20.11.2021	243176	1378
21.11.2021	244527	1351
22.11.2021	248061	3534
23.11.2021	250861	2800
24.11.2021	253800	2939
25.11.2021	256622	2822
26.11.2021	259350	2728
27.11.2021	261146	1796
28.11.2021	262991	1845
29.11.2021	267679	4688
30.11.2021	271467	3788
01.12.2021	275540	4073
02.12.2021	279726	4186
03.12.2021	284019	4293
04.12.2021	286700	2681
05.12.2021	289598	2898
06.12.2021	296071	6473
07.12.2021	301588	5517
08.12.2021	306898	5310
09.12.2021	312199	5301
10.12.2021	317383	5184
11.12.2021	320549	3166
12.12.2021	323761	3212
13.12.2021	330407	6646
14.12.2021	335607	5200
15.12.2021	340631	5024
16.12.2021	345288	4657
17.12.2021	349540	4252
18.12.2021	352289	2749
19.12.2021	354895	2606
20.12.2021	360261	5366
21.12.2021	364435	4174
22.12.2021	368125	3690
23.12.2021	371478	3353
24.12.2021	373259	1781
25.12.2021	375285	2026
26.12.2021	377724	2439
27.12.2021	382522	4798
28.12.2021	386539	4017
29.12.2021	390711	4172
30.12.2021	394904	4193
31.12.2021	397737	2833
01.01.2022	400327	2590
02.01.2022	404383	4056
03.01.2022	413528	9145
04.01.2022	421544	8016
05.01.2022	428590	7046
06.01.2022	434810	6220
07.01.2022	441186	6376
08.01.2022	445621	4435
09.01.2022	450799	5178
10.01.2022	462939	12140
11.01.2022	473856	10917
12.01.2022	484993	11137
13.01.2022	495877	10884
14.01.2022	507227	11350
15.01.2022	514975	7748
16.01.2022	523618	8643
17.01.2022	544439	20821
18.01.2022	562980	18541
19.01.2022	581136	18156
20.01.2022	599416	18280
21.01.2022	617975	18559
22.01.2022	630245	12270
23.01.2022	643114	12869
24.01.2022	671480	28366
25.01.2022	695071	23591
26.01.2022	717161	22090
27.01.2022	737256	20095
28.01.2022	756259	19003
29.01.2022	767039	10780
30.01.2022	778587	11548
31.01.2022	806454	27867
01.02.2022	829924	23470
02.02.2022	850283	20359
03.02.2022	867817	17534
04.02.2022	885239	17422
05.02.2022	896207	10968
06.02.2022	907309	11102
07.02.2022	936788	29479
08.02.2022	962308	25520
09.02.2022	986325	24017
10.02.2022	1008260	21935
11.02.2022	1028798	20538
12.02.2022	1037991	9193
13.02.2022	1045823	7832
14.02.2022	1066096	20273
15.02.2022	1082763	16667
16.02.2022	1099954	17191
17.02.2022	1115781	15827
18.02.2022	1131481	15700
19.02.2022	1139181	7700
20.02.2022	1146718	7537
21.02.2022	1168935	22217
22.02.2022	1187271	18336
23.02.2022	1205411	18140
24.02.2022	1220753	15342
25.02.2022	1235298	14545
26.02.2022	1241508	6210
27.02.2022	1247696	6188
28.02.2022	1265243	17547
01.03.2022	1277711	12468
02.03.2022	1288813	11102
03.03.2022	1297709	8896
04.03.2022	1306000	8291
05.03.2022	1309722	3722
06.03.2022	1313119	3397
07.03.2022	1324740	11621
08.03.2022	1332298	7558
09.03.2022	1339486	7188
10.03.2022	1345332	5846
11.03.2022	1350717	5385
12.03.2022	1352925	2208
13.03.2022	1355181	2256
14.03.2022	1362559	7378
15.03.2022	1367187	4628
16.03.2022	1371755	4568
17.03.2022	1375532	3777
18.03.2022	1378998	3466
19.03.2022	1380574	1576
20.03.2022	1381863	1289
21.03.2022	1386560	4697
22.03.2022	1389563	3003
23.03.2022	1392808	3245
24.03.2022	1395303	2495
25.03.2022	1397594	2291
26.03.2022	1398581	987
27.03.2022	1399397	816
28.03.2022	1402243	2846
29.03.2022	1403986	1743
30.03.2022	1405954	1968
31.03.2022	1407413	1459
01.04.2022	1408851	1438
02.04.2022	1409400	549
03.04.2022	1409910	510
04.04.2022	1411750	1840
05.04.2022	1413002	1252
06.04.2022	1414223	1221
07.04.2022	1415136	913
08.04.2022	1416084	948
09.04.2022	1416474	390
10.04.2022	1416805	331
11.04.2022	1417964	1159
12.04.2022	1418692	728
13.04.2022	1419256	564
14.04.2022	1419559	303
15.04.2022	1419883	324
16.04.2022	1420231	348
17.04.2022	1420450	219
18.04.2022	1420923	473
19.04.2022	1422063	1140
20.04.2022	1422816	753
21.04.2022	1423387	571
22.04.2022	1423936	549
23.04.2022	1424093	157
24.04.2022	1424227	134
25.04.2022	1424847	620
26.04.2022	1425199	352
27.04.2022	1425608	409
28.04.2022	1425948	340
29.04.2022	1426292	344
30.04.2022	1426399	107
01.05.2022	1426485	86
02.05.2022	1426950	465
03.05.2022	1427283	333
04.05.2022	1427581	298
05.05.2022	1427870	289
06.05.2022	1428189	319
07.05.2022	1428279	90
08.05.2022	1428366	87
09.05.2022	1428826	460
10.05.2022	1429117	291
11.05.2022	1429424	307
12.05.2022	1429701	277
13.05.2022	1429992	291
14.05.2022	1430078	86
15.05.2022	1430141	63
16.05.2022	1430538	397
17.05.2022	1430583	45
18.05.2022	1430954	371
19.05.2022	1431239	285
20.05.2022	1431533	294
21.05.2022	1431623	90
22.05.2022	1431697	74
23.05.2022	1432120	423
24.05.2022	1432406	286
25.05.2022	1432709	303
26.05.2022	1432789	80
27.05.2022	1433123	334
28.05.2022	1433202	79
29.05.2022	1433284	82
30.05.2022	1433758	474
31.05.2022	1434059	301
01.06.2022	1434375	316
02.06.2022	1434678	303
03.06.2022	1434984	306
04.06.2022	1435077	93
05.06.2022	1435153	76
06.06.2022	1435275	122
07.06.2022	1435789	514
08.06.2022	1436212	423
09.06.2022	1436597	385
10.06.2022	1437018	421
11.06.2022	1437137	119
12.06.2022	1437266	129
13.06.2022	1437848	582
14.06.2022	1438295	447
15.06.2022	1438807	512
16.06.2022	1439359	552
17.06.2022	1439994	635
18.06.2022	1440160	166
19.06.2022	1440334	174
20.06.2022	1441274	940
21.06.2022	1442022	748
22.06.2022	1442897	875
23.06.2022	1443654	757
24.06.2022	1444470	816
25.06.2022	1444714	244
26.06.2022	1444939	225
27.06.2022	1445931	992
28.06.2022	1446687	756
29.06.2022	1447371	684
30.06.2022	1447965	594
01.07.2022	1448418	453
02.07.2022	1448621	203
03.07.2022	1448777	156
04.07.2022	1449271	494
05.07.2022	1449703	432
06.07.2022	1450119	416
07.07.2022	1450498	379
08.07.2022	1450863	365
09.07.2022	1450997	134
10.07.2022	1451128	131
11.07.2022	1451545	417
12.07.2022	1451894	349
13.07.2022	1452223	329
14.07.2022	1452518	295
15.07.2022	1452846	328
16.07.2022	1452985	139
17.07.2022	1453113	128
18.07.2022	1453468	355
19.07.2022	1453766	298
20.07.2022	1454030	264
21.07.2022	1454278	248
22.07.2022	1454519	241
23.07.2022	1454629	110
24.07.2022	1454713	84
25.07.2022	1454987	274
26.07.2022	1455231	244
27.07.2022	1455439	208
28.07.2022	1455645	206
29.07.2022	1455839	194
30.07.2022	1455953	114
31.07.2022	1456053	100
01.08.2022	1456294	241
02.08.2022	1456497	203
03.08.2022	1456703	206
04.08.2022	1456862	159
05.08.2022	1457040	178
06.08.2022	1457102	62
07.08.2022	1457195	93
08.08.2022	1457413	218
09.08.2022	1457615	202
10.08.2022	1457812	197
11.08.2022	1457980	168
12.08.2022	1458147	167
13.08.2022	1458223	76
14.08.2022	1458302	79
15.08.2022	1458490	188
16.08.2022	1458628	138
17.08.2022	1458771	143
18.08.2022	1458908	137
19.08.2022	1459038	130
20.08.2022	1459088	50
21.08.2022	1459153	65
22.08.2022	1459298	145
23.08.2022	1459430	132
24.08.2022	1459557	127
25.08.2022	1459666	109
26.08.2022	1459776	110
27.08.2022	1459831	55
28.08.2022	1459895	64
29.08.2022	1460035	140
30.08.2022	1460129	94
31.08.2022	1460254	125
01.09.2022	1460363	109
02.09.2022	1460464	101
03.09.2022	1460503	39
04.09.2022	1460542	39
05.09.2022	1460662	120
06.09.2022	1460758	96
07.09.2022	1460838	80
08.09.2022	1460924	86
09.09.2022	1461005	81
10.09.2022	1461049	44
11.09.2022	1461087	38
12.09.2022	1461199	112
13.09.2022	1461298	99
14.09.2022	1461383	85
15.09.2022	1461459	76
16.09.2022	1461522	63
17.09.2022	1461559	37
18.09.2022	1461608	49
19.09.2022	1461673	65
20.09.2022	1461759	86
21.09.2022	1461829	70
22.09.2022	1461899	70
23.09.2022	1461965	66
24.09.2022	1462012	47
25.09.2022	1462052	40
26.09.2022	1462147	95
27.09.2022	1462226	79
28.09.2022	1462304	78
29.09.2022	1462389	85
30.09.2022	1462484	95
01.10.2022	1462512	28
02.10.2022	1462544	32
03.10.2022	1462635	91
04.10.2022	1462728	93
05.10.2022	1462800	72
06.10.2022	1462886	86
07.10.2022	1462976	90
08.10.2022	1463014	38
09.10.2022	1463055	41
10.10.2022	1463165	110
11.10.2022	1463229	64
12.10.2022	1463305	76
13.10.2022	1463382	77
14.10.2022	1463464	82
15.10.2022	1463512	48
16.10.2022	1463554	42
17.10.2022	1463646	92
18.10.2022	1463739	93
19.10.2022	1463835	96
20.10.2022	1463913	78
21.10.2022	1464003	90
22.10.2022	1464042	39
23.10.2022	1464114	72
24.10.2022	1464241	127
25.10.2022	1464359	118
26.10.2022	1464477	118
27.10.2022	1464609	132
28.10.2022	1464736	127
29.10.2022	1464816	80
30.10.2022	1464888	72
31.10.2022	1465055	167
01.11.2022	1465205	150
02.11.2022	1465326	121
03.11.2022	1465390	64